%YAML 1.1
%TAG !u! tag:unity3d.com,2011:
--- !u!114 &11400000
MonoBehaviour:
  m_ObjectHideFlags: 0
  m_CorrespondingSourceObject: {fileID: 0}
  m_PrefabInternal: {fileID: 0}
  m_GameObject: {fileID: 0}
  m_Enabled: 1
  m_EditorHideFlags: 0
  m_Script: {fileID: 11500000, guid: f05ec74be7c9bf3459251ee2ca797e04, type: 3}
  m_Name: RedWin
  m_EditorClassIdentifier: 
  _type: 18
  _priority: 5
  _isQueueable: 0
  _voiceClips:
  - {fileID: 8300000, guid: 14bdd9590f4f74a87a830b6a5db84c5b, type: 3}
  - {fileID: 8300000, guid: f8ec7ab30ad80455aaed43189dcf6f70, type: 3}
  - {fileID: 8300000, guid: 7873f3a30b8a442ed8940d9adf4ad1bb, type: 3}
  - {fileID: 8300000, guid: 3a86ee4db73bc4a15970c56176a444d5, type: 3}
  - {fileID: 8300000, guid: 9161ec8798b3e452cb7808a75ffd0cea, type: 3}
