%YAML 1.1
%TAG !u! tag:unity3d.com,2011:
--- !u!114 &11400000
MonoBehaviour:
  m_ObjectHideFlags: 0
  m_CorrespondingSourceObject: {fileID: 0}
  m_PrefabInternal: {fileID: 0}
  m_GameObject: {fileID: 0}
  m_Enabled: 1
  m_EditorHideFlags: 0
  m_Script: {fileID: 11500000, guid: f05ec74be7c9bf3459251ee2ca797e04, type: 3}
  m_Name: Banter
  m_EditorClassIdentifier: 
  _type: 1
  _priority: 0
  _isQueueable: 0
  _voiceClips:
  - {fileID: 8300000, guid: 7fb7b71ebcee44546b35282d05ce8dec, type: 3}
  - {fileID: 8300000, guid: 089613068fe2644c68029d4d4efcc47b, type: 3}
  - {fileID: 8300000, guid: 51240edcf6c564ed6a6efb72e554731d, type: 3}
  - {fileID: 8300000, guid: d63d00f2a52514046a8ef4decde3554d, type: 3}
  - {fileID: 8300000, guid: 6a5ee0531c6524664b1c6867310d0db2, type: 3}
  - {fileID: 8300000, guid: 22c1c9724d2864c8e8adda65d2e70c36, type: 3}
  - {fileID: 8300000, guid: 8dd0b2369689d4c7f9a0a7f532f12fb4, type: 3}
  - {fileID: 8300000, guid: bb85ddd544d6c48b89cc63df1f1ff887, type: 3}
  - {fileID: 8300000, guid: b1c5eb301d47f4f69a967570e9183833, type: 3}
  - {fileID: 8300000, guid: 4db16c7b917cf456eb01172ff7b0e928, type: 3}
  - {fileID: 8300000, guid: b671292a7afe249228906d5c42eddaa0, type: 3}
  - {fileID: 8300000, guid: 2d1cf42b1614042b9a475935bf9f6332, type: 3}
  - {fileID: 8300000, guid: 40ad38d780b8d4b9a96dfd0632827648, type: 3}
  - {fileID: 8300000, guid: 53ba832191d724dccba62d0e5cf0fd95, type: 3}
  - {fileID: 8300000, guid: 7af5d625096c14a80b30ad9a12c04b37, type: 3}
  - {fileID: 8300000, guid: 546d3f3018e9c4d48aabc3a991359bff, type: 3}
  - {fileID: 8300000, guid: b40cd4ae489c84406ba2efc5b429373a, type: 3}
  - {fileID: 8300000, guid: b684f68cd4123462393b1fe4b2c68e33, type: 3}
  - {fileID: 8300000, guid: 9a47afe27cd074aa3b05da54cf5cd971, type: 3}
  - {fileID: 8300000, guid: b17298b597fa146e495eee4ad1d7da37, type: 3}
  - {fileID: 8300000, guid: 5c899ec60680d449eaa39bb8ffcb0808, type: 3}
  - {fileID: 8300000, guid: 568232e601b5548a6a536fa937ae3324, type: 3}
  - {fileID: 8300000, guid: c7e240da4ce2d4f95a591a0b212ac42b, type: 3}
  - {fileID: 8300000, guid: f6dc17692d94f417d9ea58f1723866f1, type: 3}
  - {fileID: 8300000, guid: 58e31839001084384ad20d62642bd1f5, type: 3}
  - {fileID: 8300000, guid: 14fed81429ce84a0681a5e44c751f28b, type: 3}
  - {fileID: 8300000, guid: 0fba5aecbedb8499ea29db26ab0834a9, type: 3}
  - {fileID: 8300000, guid: 4b36016f3260740dc9659994302b4e86, type: 3}
  - {fileID: 8300000, guid: 31df65f9dfbe94ccaa4584983251997f, type: 3}
  - {fileID: 8300000, guid: 7d6edb7b654f34b4ab558dccc1b0f800, type: 3}
